<svg width="512" height="65" viewBox="0 0 512 65" fill="none" xmlns="http://www.w3.org/2000/svg">
<path d="M26.3349 63.8477C21.1652 63.7207 14.7964 64.1854 8.45759 63.6648C2.42025 63.1678 0.200394 60.6485 0.0604419 54.5407C-0.0364483 50.2551 0.032451 45.9674 0.030298 41.6795C0.0281445 37.2326 0.0475229 32.7878 0.0195321 28.3408C0.0109196 27.0092 0.153024 25.6946 0.389867 24.3973C1.10255 20.499 3.63892 18.3261 8.02267 18.169C12.837 17.9947 17.6621 18.027 22.4808 18.0206C27.7258 18.0141 32.973 17.9582 38.2115 18.1217C43.3984 18.2852 46.2362 21.0627 46.3868 26.2862C46.5698 32.5792 46.4363 38.8827 46.4772 45.1799C46.4816 45.9674 46.2168 46.1416 45.4782 46.1394C36.685 46.1179 27.8895 46.1115 19.0961 46.1459C18.1875 46.1502 18.0777 45.7801 18.0885 45.025C18.1229 42.325 18.153 39.6249 18.0777 36.9271C18.0476 35.8622 18.3942 35.6127 19.4126 35.6233C24.4445 35.6728 29.4784 35.6147 34.5103 35.6707C35.589 35.6814 36.011 35.4448 35.9356 34.2917C35.8344 32.7103 35.8797 31.1162 35.9228 29.5305C35.9443 28.741 35.7376 28.3967 34.8677 28.3989C27.1337 28.4248 19.3976 28.4226 11.6636 28.4011C10.8454 28.3989 10.559 28.6442 10.5612 29.4854C10.587 37.1078 10.5999 44.7302 10.5526 52.3506C10.544 53.5725 11.2502 53.3961 11.9844 53.3961C23.004 53.394 34.0237 53.4197 45.0412 53.3616C46.4385 53.3552 46.9553 53.6349 46.8671 55.1366C46.7249 57.5096 46.7679 59.8998 46.8541 62.2793C46.8992 63.4798 46.6173 63.8992 45.3124 63.882C39.3849 63.8046 33.4509 63.8477 26.3349 63.8477Z" fill="#08152D"/>
<path d="M21.4838 0.0370889C27.6828 0.0370889 33.8837 0.0284834 40.0825 0.0392405C53.701 0.0629059 64.5806 10.9361 64.5872 24.5329C64.5936 37.1338 64.5635 49.7345 64.6259 62.3353C64.6323 63.7058 64.2404 63.9919 62.9615 63.936C60.4746 63.8284 57.9792 63.837 55.4923 63.9338C54.3103 63.9811 54.0046 63.6691 54.0088 62.4687C54.0583 50.0272 54.0412 37.5855 54.0368 25.1439C54.0347 16.4222 48.1179 10.5166 39.3871 10.5166C26.7762 10.5144 14.1633 10.4951 1.55251 10.5467C0.277865 10.551 -0.0407955 10.1982 0.0087262 8.97401C0.105617 6.54293 0.112077 4.10109 0.0065735 1.67001C-0.0494074 0.394222 0.232651 -0.0166958 1.61065 0.000515443C8.23579 0.0844202 14.8588 0.0370889 21.4838 0.0370889Z" fill="#08152D"/>
<path d="M110.626 19.1061V46.3546L88.314 19.1061H79.7227V63.986H89.9809V36.7375L112.357 63.986H120.884V19.1061H110.626ZM161.829 53.9842C159.2 55.3947 156.571 55.9076 153.75 55.9076C145.159 55.9076 139.196 49.945 139.196 41.546C139.196 33.0189 145.159 27.1845 153.878 27.1845C158.431 27.1845 162.213 28.7873 165.483 32.2495L172.151 26.0945C167.791 21.0295 161.252 18.3367 153.366 18.3367C139.068 18.3367 128.682 28.0179 128.682 41.546C128.682 55.0741 139.068 64.7554 153.173 64.7554C159.585 64.7554 166.381 62.7678 171.317 59.0492V40.8408H161.829V53.9842ZM214.497 63.986H225.397L205.329 19.1061H195.071L175.067 63.986H185.71L189.685 54.3689H210.522L214.497 63.986ZM193.019 46.4828L200.136 29.3002L207.252 46.4828H193.019ZM259.753 53.9842C257.124 55.3947 254.495 55.9076 251.674 55.9076C243.083 55.9076 237.12 49.945 237.12 41.546C237.12 33.0189 243.083 27.1845 251.803 27.1845C256.355 27.1845 260.137 28.7873 263.407 32.2495L270.075 26.0945C265.715 21.0295 259.176 18.3367 251.29 18.3367C236.992 18.3367 226.606 28.0179 226.606 41.546C226.606 55.0741 236.992 64.7554 251.097 64.7554C257.509 64.7554 264.305 62.7678 269.242 59.0492V40.8408H259.753V53.9842ZM289.212 55.6512V45.2647H310.049V37.1863H289.212V27.4409H312.806V19.1061H278.89V63.986H313.639V55.6512H289.212ZM372.49 63.986L372.362 19.1061H363.834L347.293 46.9957L330.495 19.1061H321.904V63.986H331.649V37.6351L344.793 59.2416H349.473L362.68 37.058L362.745 63.986H372.49ZM393.46 55.6512V45.2647H414.297V37.1863H393.46V27.4409H417.054V19.1061H383.138V63.986H417.888V55.6512H393.46ZM457.055 19.1061V46.3546L434.743 19.1061H426.152V63.986H436.41V36.7375L458.786 63.986H467.313V19.1061H457.055ZM487.229 63.986H497.615V27.5691H511.977V19.1061H472.867V27.5691H487.229V63.986Z" fill="#08152D"/>
</svg>
