<svg width="41" height="47" viewBox="0 0 41 47" fill="none" xmlns="http://www.w3.org/2000/svg">
<path d="M9.09407 9.44213C9.09407 9.44213 8.49596 11.2615 8.26778 15.2455C8.06917 18.711 8.00701 23.8142 8.46829 30.7827H25.8382L18.3485 7.80396L9.09407 9.44213Z" fill="url(#paint0_linear)"/>
<path d="M30.2888 7.02954C30.2888 7.02954 31.2045 9.4887 31.6779 14.0124C32.099 18.0378 32.1915 23.6925 31.8546 30.7823H14.4847L21.9743 7.80352L30.2888 7.02954Z" fill="url(#paint1_linear)"/>
<path d="M32.5967 28.719L25.0161 26.1534L24.258 22.363H16.2984L14.7822 26.1534L7.58063 28.719C7.58063 28.719 0 30.5376 0 45.128H6.44354V47.0001H33.7338V45.1284H40.1773C40.1773 30.5376 32.5967 28.719 32.5967 28.719Z" fill="url(#paint2_linear)"/>
<path d="M25.0161 26.1534L24.258 22.363H16.2983L15.7662 23.6733L22.3193 30.2264L25.0161 26.1534Z" fill="#EBA38D"/>
<path d="M12.073 11.75C12.073 11.75 7.90892 14.7197 13.6452 19.3306L12.073 11.75Z" fill="url(#paint3_linear)"/>
<path d="M28.1044 11.75C28.1044 11.75 32.2685 14.7197 26.5322 19.3306L28.1044 11.75Z" fill="url(#paint4_linear)"/>
<path d="M28.2379 11.8321C28.2379 18.2222 25.383 25.7744 20.0887 25.7744C14.7425 25.7744 11.9395 18.2222 11.9395 11.8321C11.9395 5.44236 15.5881 2.27441 20.0887 2.27441C24.5893 2.27441 28.2379 5.44236 28.2379 11.8321Z" fill="url(#paint5_linear)"/>
<path d="M18.9516 29.9435L15.0911 25.3811L14.7822 26.1532L7.58063 28.7189C7.58063 28.7189 0 30.5374 0 45.1279H6.44354V46.9999H20.0887V32.2177L18.9516 29.9435Z" fill="url(#paint6_linear)"/>
<path d="M16.2984 47.0001L12.9913 26.7913L7.58063 28.719C7.58063 28.719 0 30.5376 0 45.128H6.44354V47.0001H16.2984Z" fill="#18669B"/>
<path d="M12.9913 26.7913L10.1895 27.7896L7.58063 34.8711L10.9919 39.0404L8.33869 40.9356L14.0223 47.0001H16.2984L12.9913 26.7913Z" fill="url(#paint7_linear)"/>
<path d="M15.1613 24.6372L18.9516 29.9436L11.75 35.2501L12.5081 26.5324L15.1613 24.6372Z" fill="url(#paint8_linear)"/>
<path d="M1.8952 45.0881C1.8952 45.1048 6.44358 45.1048 6.44358 45.1048V36.7661L1.8952 45.0881Z" fill="url(#paint9_linear)"/>
<path d="M21.2258 29.9435L25.0862 25.3811L25.3951 26.1532L32.5967 28.7189C32.5967 28.7189 40.1774 30.5374 40.1774 45.1279H33.7338V46.9999H20.0887V32.2177L21.2258 29.9435Z" fill="url(#paint10_linear)"/>
<path d="M23.879 47.0001L27.1861 26.7913L32.5968 28.719C32.5968 28.719 40.1774 30.5376 40.1774 45.128H33.7338V47.0001H23.879Z" fill="#18669B"/>
<path d="M27.1861 26.7913L29.9879 27.7896L32.5968 34.8711L29.1855 39.0404L31.8387 40.9356L26.1551 47.0001H23.879L27.1861 26.7913Z" fill="url(#paint11_linear)"/>
<path d="M25.0161 24.6372L21.2258 29.9436L28.4274 35.2501L27.6694 26.5324L25.0161 24.6372Z" fill="url(#paint12_linear)"/>
<path d="M38.2821 45.0881C38.2821 45.1048 33.7338 45.1048 33.7338 45.1048V36.7661L38.2821 45.0881Z" fill="url(#paint13_linear)"/>
<path d="M13.8145 12.9641L11.1598 11.9563C11.164 13.8863 12.5933 21.9226 13.1031 23.8223C12.7294 21.6697 13.8145 12.9641 13.8145 12.9641Z" fill="url(#paint14_linear)"/>
<path d="M31.6779 14.0126C31.6779 14.0126 22.6539 13.2128 23.6633 6.31784C23.8661 4.93323 27.2152 1.7126 28.7772 3.9993C30.0208 5.82055 31.2557 8.88388 31.6779 14.0126Z" fill="url(#paint15_linear)"/>
<path d="M28.7772 3.99922C28.7772 3.99922 20.6928 14.8748 8.26779 15.2451C8.26779 15.2451 8.1177 0.0228056 19.9063 0.0228056C19.9063 0.0228056 25.4853 -0.546121 28.7772 3.99922Z" fill="url(#paint16_linear)"/>
<path d="M26.1774 11.2959C26.8592 12.1923 26.8153 14.3107 26.8153 14.3107C26.8153 14.3107 26.9464 21.3683 26.5651 23.5219L27.6893 19.8086C28.3143 17.9017 28.7514 14.7595 28.8469 12.7203L26.1774 11.2959Z" fill="url(#paint17_linear)"/>
<defs>
<linearGradient id="paint0_linear" x1="16.9779" y1="7.80396" x2="16.9779" y2="30.7824" gradientUnits="userSpaceOnUse">
<stop stop-color="#8B5D4F"/>
<stop offset="0.0226" stop-color="#885B4C"/>
<stop offset="0.2284" stop-color="#714B36"/>
<stop offset="0.4486" stop-color="#604026"/>
<stop offset="0.6912" stop-color="#56391D"/>
<stop offset="1" stop-color="#53371A"/>
</linearGradient>
<linearGradient id="paint1_linear" x1="23.2721" y1="7.02954" x2="23.2721" y2="30.7823" gradientUnits="userSpaceOnUse">
<stop stop-color="#61472C"/>
<stop offset="0.1249" stop-color="#5D4327"/>
<stop offset="0.5097" stop-color="#553A1D"/>
<stop offset="1" stop-color="#53371A"/>
</linearGradient>
<linearGradient id="paint2_linear" x1="0" y1="34.6816" x2="40.1773" y2="34.6816" gradientUnits="userSpaceOnUse">
<stop stop-color="#FFC8AB"/>
<stop offset="0.4098" stop-color="#FDC4A9"/>
<stop offset="0.7795" stop-color="#F5B9A2"/>
<stop offset="1" stop-color="#EEAF9C"/>
</linearGradient>
<linearGradient id="paint3_linear" x1="14.0405" y1="16.8779" x2="10.5072" y2="13.1551" gradientUnits="userSpaceOnUse">
<stop stop-color="#EBA38D"/>
<stop offset="1" stop-color="#F4BFA6"/>
</linearGradient>
<linearGradient id="paint4_linear" x1="26.1369" y1="16.8779" x2="29.6702" y2="13.1551" gradientUnits="userSpaceOnUse">
<stop stop-color="#EBA38D"/>
<stop offset="1" stop-color="#F4BFA6"/>
</linearGradient>
<linearGradient id="paint5_linear" x1="17.5147" y1="10.4907" x2="27.636" y2="21.9219" gradientUnits="userSpaceOnUse">
<stop stop-color="#FFC8AB"/>
<stop offset="0.4098" stop-color="#FDC4A9"/>
<stop offset="0.7795" stop-color="#F5B9A2"/>
<stop offset="1" stop-color="#EEAF9C"/>
</linearGradient>
<linearGradient id="paint6_linear" x1="10.0443" y1="24.1379" x2="10.0443" y2="50.1557" gradientUnits="userSpaceOnUse">
<stop stop-color="#FFE3FF"/>
<stop offset="1" stop-color="#FFC8FF"/>
</linearGradient>
<linearGradient id="paint7_linear" x1="11.9395" y1="26.7913" x2="11.9395" y2="47.0001" gradientUnits="userSpaceOnUse">
<stop stop-color="#0F5E8E"/>
<stop offset="1" stop-color="#174F71"/>
</linearGradient>
<linearGradient id="paint8_linear" x1="15.3508" y1="24.027" x2="15.3508" y2="36.7992" gradientUnits="userSpaceOnUse">
<stop stop-color="#FFE3FF"/>
<stop offset="1" stop-color="#FFC8FF"/>
</linearGradient>
<linearGradient id="paint9_linear" x1="4.16939" y1="36.7661" x2="4.16939" y2="45.1048" gradientUnits="userSpaceOnUse">
<stop stop-color="#0F5E8E"/>
<stop offset="1" stop-color="#174F71"/>
</linearGradient>
<linearGradient id="paint10_linear" x1="30.133" y1="24.1379" x2="30.133" y2="50.1557" gradientUnits="userSpaceOnUse">
<stop stop-color="#FFE3FF"/>
<stop offset="1" stop-color="#FFC8FF"/>
</linearGradient>
<linearGradient id="paint11_linear" x1="28.2379" y1="26.7913" x2="28.2379" y2="47.0001" gradientUnits="userSpaceOnUse">
<stop stop-color="#0F5E8E"/>
<stop offset="1" stop-color="#174F71"/>
</linearGradient>
<linearGradient id="paint12_linear" x1="24.8266" y1="24.027" x2="24.8266" y2="36.7992" gradientUnits="userSpaceOnUse">
<stop stop-color="#FFE3FF"/>
<stop offset="1" stop-color="#FFC8FF"/>
</linearGradient>
<linearGradient id="paint13_linear" x1="36.008" y1="36.7661" x2="36.008" y2="45.1048" gradientUnits="userSpaceOnUse">
<stop stop-color="#0F5E8E"/>
<stop offset="1" stop-color="#174F71"/>
</linearGradient>
<linearGradient id="paint14_linear" x1="12.146" y1="23.187" x2="12.6153" y2="8.4332" gradientUnits="userSpaceOnUse">
<stop stop-color="#9D766A"/>
<stop offset="0.1548" stop-color="#84614F"/>
<stop offset="0.3327" stop-color="#6E4E38"/>
<stop offset="0.5231" stop-color="#5F4127"/>
<stop offset="0.733" stop-color="#56391D"/>
<stop offset="1" stop-color="#53371A"/>
</linearGradient>
<linearGradient id="paint15_linear" x1="31.2064" y1="15.1042" x2="26.6088" y2="7.1536" gradientUnits="userSpaceOnUse">
<stop stop-color="#61472C"/>
<stop offset="0.1249" stop-color="#5D4327"/>
<stop offset="0.5097" stop-color="#553A1D"/>
<stop offset="1" stop-color="#53371A"/>
</linearGradient>
<linearGradient id="paint16_linear" x1="13.4363" y1="3.08879" x2="19.8563" y2="11.3297" gradientUnits="userSpaceOnUse">
<stop stop-color="#9D766A"/>
<stop offset="1" stop-color="#53371A"/>
</linearGradient>
<linearGradient id="paint17_linear" x1="27.1651" y1="22.9155" x2="27.6507" y2="7.64962" gradientUnits="userSpaceOnUse">
<stop stop-color="#9D766A"/>
<stop offset="0.1548" stop-color="#84614F"/>
<stop offset="0.3327" stop-color="#6E4E38"/>
<stop offset="0.5231" stop-color="#5F4127"/>
<stop offset="0.733" stop-color="#56391D"/>
<stop offset="1" stop-color="#53371A"/>
</linearGradient>
</defs>
</svg>
